a,b,c,d,e,f,g,h
\u265C,\u265E,\u265D,\u265B,\u265A,\u265D,\u265E,\u265C
\u265F,\u265F,\u265F,\u265F,\u265F,\u265F,\u265F,\u265F
X,X,X,X,X,X,X,X
X,X,X,X,X,X,X,X
X,X,X,X,X,X,X,X
X,X,X,X,X,X,X,X
\u2659,\u2659,\u2659,\u2659,\u2659,\u2659,\u2659,\u2659
\u2656,\u2658,\u2657,\u2655,\u2654,\u2657,\u2658,\u2656